; Feeding 1.0 mm of material with compression 20.0
T0 G0 E0.20 F300.0 ; Feed wheel
T1 G0 E0.01 F300.0 ; Compress material
T0 G0 E0.20 F300.0 ; Feed wheel
T1 G0 E0.01 F300.0 ; Compress material
T0 G0 E0.20 F300.0 ; Feed wheel
T1 G0 E0.01 F300.0 ; Compress material
T0 G0 E0.20 F300.0 ; Feed wheel
T1 G0 E0.01 F300.0 ; Compress material
T0 G0 E0.20 F300.0 ; Feed wheel
T1 G0 E0.01 F300.0 ; Compress material
G0 X3.00000 F1200.0 ; Move the laser
G1 X4.00000 F1200.0 S1.0 ; Shoot the laser
G0 X3.00000 F1200.0 ; Move the laser
G0 Y1.00000
G0 X-10.00000 F1200.0 ; Reset movement to beginning of line
